module kafka-parallel-queues

go 1.21

require (
	github.com/go-resty/resty/v2 v2.7.0
	github.com/gofiber/fiber/v2 v2.48.0
	github.com/segmentio/kafka-go v0.4.42
	github.com/stretchr/testify v1.8.0
	golang.org/x/sync v0.0.0-20220722155255-886fb9371eb4
)

require (
	github.com/andybalholm/brotli v1.0.5 // indirect
	github.com/davecgh/go-spew v1.1.1 // indirect
	github.com/google/uuid v1.3.0 // indirect
	github.com/klauspost/compress v1.16.3 // indirect
	github.com/mattn/go-colorable v0.1.13 // indirect
	github.com/mattn/go-isatty v0.0.19 // indirect
	github.com/mattn/go-runewidth v0.0.14 // indirect
	github.com/pierrec/lz4/v4 v4.1.15 // indirect
	github.com/pmezard/go-difflib v1.0.0 // indirect
	github.com/rivo/uniseg v0.2.0 // indirect
	github.com/valyala/bytebufferpool v1.0.0 // indirect
	github.com/valyala/fasthttp v1.48.0 // indirect
	github.com/valyala/tcplisten v1.0.0 // indirect
	golang.org/x/net v0.8.0 // indirect
	golang.org/x/sys v0.10.0 // indirect
	gopkg.in/yaml.v3 v3.0.1 // indirect
)
